%YAML 1.1
%TAG !u! tag:unity3d.com,2011:
--- !u!29 &1
OcclusionCullingSettings:
  m_ObjectHideFlags: 0
  serializedVersion: 2
  m_OcclusionBakeSettings:
    smallestOccluder: 5
    smallestHole: 0.25
    backfaceThreshold: 100
  m_SceneGUID: 00000000000000000000000000000000
  m_OcclusionCullingData: {fileID: 0}
--- !u!104 &2
RenderSettings:
  m_ObjectHideFlags: 0
  serializedVersion: 9
  m_Fog: 0
  m_FogColor: {r: 0.5, g: 0.5, b: 0.5, a: 1}
  m_FogMode: 3
  m_FogDensity: 0.01
  m_LinearFogStart: 0
  m_LinearFogEnd: 300
  m_AmbientSkyColor: {r: 0.212, g: 0.227, b: 0.259, a: 1}
  m_AmbientEquatorColor: {r: 0.114, g: 0.125, b: 0.133, a: 1}
  m_AmbientGroundColor: {r: 0.047, g: 0.043, b: 0.035, a: 1}
  m_AmbientIntensity: 0.3
  m_AmbientMode: 0
  m_SubtractiveShadowColor: {r: 0.42, g: 0.478, b: 0.627, a: 1}
  m_SkyboxMaterial: {fileID: 2100000, guid: eca3c00ef1cc6ce45bfade23ebc4ab1e, type: 2}
  m_HaloStrength: 0.5
  m_FlareStrength: 1
  m_FlareFadeSpeed: 3
  m_HaloTexture: {fileID: 0}
  m_SpotCookie: {fileID: 10001, guid: 0000000000000000e000000000000000, type: 0}
  m_DefaultReflectionMode: 0
  m_DefaultReflectionResolution: 128
  m_ReflectionBounces: 1
  m_ReflectionIntensity: 1
  m_CustomReflection: {fileID: 0}
  m_Sun: {fileID: 0}
  m_IndirectSpecularColor: {r: 0.49832428, g: 0.5502518, b: 0.5888993, a: 1}
  m_UseRadianceAmbientProbe: 0
--- !u!157 &3
LightmapSettings:
  m_ObjectHideFlags: 0
  serializedVersion: 11
  m_GIWorkflowMode: 1
  m_GISettings:
    serializedVersion: 2
    m_BounceScale: 1
    m_IndirectOutputScale: 1
    m_AlbedoBoost: 1
    m_EnvironmentLightingMode: 1
    m_EnableBakedLightmaps: 1
    m_EnableRealtimeLightmaps: 0
  m_LightmapEditorSettings:
    serializedVersion: 12
    m_Resolution: 2
    m_BakeResolution: 40
    m_AtlasSize: 1024
    m_AO: 0
    m_AOMaxDistance: 1
    m_CompAOExponent: 1
    m_CompAOExponentDirect: 0
    m_ExtractAmbientOcclusion: 0
    m_Padding: 2
    m_LightmapParameters: {fileID: 0}
    m_LightmapsBakeMode: 1
    m_TextureCompression: 1
    m_FinalGather: 0
    m_FinalGatherFiltering: 1
    m_FinalGatherRayCount: 256
    m_ReflectionCompression: 2
    m_MixedBakeMode: 2
    m_BakeBackend: 1
    m_PVRSampling: 1
    m_PVRDirectSampleCount: 32
    m_PVRSampleCount: 512
    m_PVRBounces: 2
    m_PVREnvironmentSampleCount: 256
    m_PVREnvironmentReferencePointCount: 2048
    m_PVRFilteringMode: 1
    m_PVRDenoiserTypeDirect: 1
    m_PVRDenoiserTypeIndirect: 1
    m_PVRDenoiserTypeAO: 1
    m_PVRFilterTypeDirect: 0
    m_PVRFilterTypeIndirect: 0
    m_PVRFilterTypeAO: 0
    m_PVREnvironmentMIS: 1
    m_PVRCulling: 1
    m_PVRFilteringGaussRadiusDirect: 1
    m_PVRFilteringGaussRadiusIndirect: 5
    m_PVRFilteringGaussRadiusAO: 2
    m_PVRFilteringAtrousPositionSigmaDirect: 0.5
    m_PVRFilteringAtrousPositionSigmaIndirect: 2
    m_PVRFilteringAtrousPositionSigmaAO: 1
    m_ExportTrainingData: 0
    m_TrainingDataDestination: TrainingData
  m_LightingDataAsset: {fileID: 112000000, guid: a45aac21735b98a4c935e1c1076b91a1,
    type: 2}
  m_UseShadowmask: 1
--- !u!196 &4
NavMeshSettings:
  serializedVersion: 2
  m_ObjectHideFlags: 0
  m_BuildSettings:
    serializedVersion: 2
    agentTypeID: 0
    agentRadius: 0.5
    agentHeight: 2
    agentSlope: 45
    agentClimb: 0.4
    ledgeDropHeight: 0
    maxJumpAcrossDistance: 0
    minRegionArea: 2
    manualCellSize: 0
    cellSize: 0.16666667
    manualTileSize: 0
    tileSize: 256
    accuratePlacement: 0
    debug:
      m_Flags: 0
  m_NavMeshData: {fileID: 0}
<<<<<<< HEAD
--- !u!4 &216104885 stripped
Transform:
  m_CorrespondingSourceObject: {fileID: 201833920206958078, guid: 9bf7656e6c7ba174686ce731335c16be,
    type: 3}
  m_PrefabInstance: {fileID: 461988902}
  m_PrefabAsset: {fileID: 0}
--- !u!4 &400883470 stripped
Transform:
  m_CorrespondingSourceObject: {fileID: 201833920206958078, guid: 9bf7656e6c7ba174686ce731335c16be,
    type: 3}
  m_PrefabInstance: {fileID: 787500319}
  m_PrefabAsset: {fileID: 0}
--- !u!1001 &461988902
=======
--- !u!1001 &873855822
>>>>>>> feature-Interaction
PrefabInstance:
  m_ObjectHideFlags: 0
  serializedVersion: 2
  m_Modification:
<<<<<<< HEAD
    m_TransformParent: {fileID: 1816002335}
    m_Modifications:
    - target: {fileID: 201833920206958074, guid: 9bf7656e6c7ba174686ce731335c16be,
        type: 3}
      propertyPath: m_Name
      value: Delimiter (1)
      objectReference: {fileID: 0}
    - target: {fileID: 201833920206958078, guid: 9bf7656e6c7ba174686ce731335c16be,
        type: 3}
      propertyPath: m_LocalPosition.x
      value: -300
      objectReference: {fileID: 0}
    - target: {fileID: 201833920206958078, guid: 9bf7656e6c7ba174686ce731335c16be,
        type: 3}
      propertyPath: m_LocalPosition.y
      value: 1.7
      objectReference: {fileID: 0}
    - target: {fileID: 201833920206958078, guid: 9bf7656e6c7ba174686ce731335c16be,
        type: 3}
      propertyPath: m_LocalPosition.z
      value: 50
      objectReference: {fileID: 0}
    - target: {fileID: 201833920206958078, guid: 9bf7656e6c7ba174686ce731335c16be,
        type: 3}
      propertyPath: m_LocalRotation.x
      value: 0.50000006
      objectReference: {fileID: 0}
    - target: {fileID: 201833920206958078, guid: 9bf7656e6c7ba174686ce731335c16be,
        type: 3}
      propertyPath: m_LocalRotation.y
      value: 0.5
      objectReference: {fileID: 0}
    - target: {fileID: 201833920206958078, guid: 9bf7656e6c7ba174686ce731335c16be,
        type: 3}
      propertyPath: m_LocalRotation.z
      value: -0.5
      objectReference: {fileID: 0}
    - target: {fileID: 201833920206958078, guid: 9bf7656e6c7ba174686ce731335c16be,
        type: 3}
      propertyPath: m_LocalRotation.w
      value: 0.50000006
      objectReference: {fileID: 0}
    - target: {fileID: 201833920206958078, guid: 9bf7656e6c7ba174686ce731335c16be,
        type: 3}
      propertyPath: m_RootOrder
      value: 1
      objectReference: {fileID: 0}
    - target: {fileID: 201833920206958078, guid: 9bf7656e6c7ba174686ce731335c16be,
        type: 3}
      propertyPath: m_LocalEulerAnglesHint.x
      value: 90
      objectReference: {fileID: 0}
    - target: {fileID: 201833920206958078, guid: 9bf7656e6c7ba174686ce731335c16be,
        type: 3}
      propertyPath: m_LocalEulerAnglesHint.y
      value: 180
      objectReference: {fileID: 0}
    - target: {fileID: 201833920206958078, guid: 9bf7656e6c7ba174686ce731335c16be,
        type: 3}
      propertyPath: m_LocalEulerAnglesHint.z
      value: 90.00001
      objectReference: {fileID: 0}
    - target: {fileID: 201833920206958078, guid: 9bf7656e6c7ba174686ce731335c16be,
        type: 3}
      propertyPath: m_LocalScale.z
      value: 0.33999994
      objectReference: {fileID: 0}
    m_RemovedComponents: []
  m_SourcePrefab: {fileID: 100100000, guid: 9bf7656e6c7ba174686ce731335c16be, type: 3}
--- !u!4 &699409212 stripped
Transform:
  m_CorrespondingSourceObject: {fileID: 201833920206958078, guid: 9bf7656e6c7ba174686ce731335c16be,
    type: 3}
  m_PrefabInstance: {fileID: 769814684}
  m_PrefabAsset: {fileID: 0}
--- !u!1001 &715804519
PrefabInstance:
  m_ObjectHideFlags: 0
  serializedVersion: 2
  m_Modification:
    m_TransformParent: {fileID: 1816002335}
    m_Modifications:
    - target: {fileID: 201833920206958074, guid: 9bf7656e6c7ba174686ce731335c16be,
        type: 3}
      propertyPath: m_Name
      value: Delimiter (5)
      objectReference: {fileID: 0}
    - target: {fileID: 201833920206958078, guid: 9bf7656e6c7ba174686ce731335c16be,
        type: 3}
      propertyPath: m_LocalPosition.x
      value: -400
      objectReference: {fileID: 0}
    - target: {fileID: 201833920206958078, guid: 9bf7656e6c7ba174686ce731335c16be,
        type: 3}
      propertyPath: m_LocalPosition.y
      value: 1.7
      objectReference: {fileID: 0}
    - target: {fileID: 201833920206958078, guid: 9bf7656e6c7ba174686ce731335c16be,
        type: 3}
      propertyPath: m_LocalPosition.z
      value: -250
      objectReference: {fileID: 0}
    - target: {fileID: 201833920206958078, guid: 9bf7656e6c7ba174686ce731335c16be,
        type: 3}
      propertyPath: m_LocalRotation.x
      value: 0.5
      objectReference: {fileID: 0}
    - target: {fileID: 201833920206958078, guid: 9bf7656e6c7ba174686ce731335c16be,
        type: 3}
      propertyPath: m_LocalRotation.y
      value: -0.50000006
      objectReference: {fileID: 0}
    - target: {fileID: 201833920206958078, guid: 9bf7656e6c7ba174686ce731335c16be,
        type: 3}
      propertyPath: m_LocalRotation.z
      value: 0.50000006
      objectReference: {fileID: 0}
    - target: {fileID: 201833920206958078, guid: 9bf7656e6c7ba174686ce731335c16be,
        type: 3}
      propertyPath: m_LocalRotation.w
      value: 0.5
      objectReference: {fileID: 0}
    - target: {fileID: 201833920206958078, guid: 9bf7656e6c7ba174686ce731335c16be,
=======
    m_TransformParent: {fileID: 0}
    m_Modifications:
    - target: {fileID: 3671695946773133221, guid: c29038f2aa127534098348bb2af2fbfc,
        type: 3}
      propertyPath: m_Name
      value: CoreObjects
      objectReference: {fileID: 0}
    - target: {fileID: 3671695946773133220, guid: c29038f2aa127534098348bb2af2fbfc,
        type: 3}
      propertyPath: m_LocalPosition.x
      value: -1.4802926
      objectReference: {fileID: 0}
    - target: {fileID: 3671695946773133220, guid: c29038f2aa127534098348bb2af2fbfc,
        type: 3}
      propertyPath: m_LocalPosition.y
      value: 9.2731
      objectReference: {fileID: 0}
    - target: {fileID: 3671695946773133220, guid: c29038f2aa127534098348bb2af2fbfc,
        type: 3}
      propertyPath: m_LocalPosition.z
      value: -6.2817173
      objectReference: {fileID: 0}
    - target: {fileID: 3671695946773133220, guid: c29038f2aa127534098348bb2af2fbfc,
        type: 3}
      propertyPath: m_LocalRotation.x
      value: 0
      objectReference: {fileID: 0}
    - target: {fileID: 3671695946773133220, guid: c29038f2aa127534098348bb2af2fbfc,
        type: 3}
      propertyPath: m_LocalRotation.y
      value: 0
      objectReference: {fileID: 0}
    - target: {fileID: 3671695946773133220, guid: c29038f2aa127534098348bb2af2fbfc,
        type: 3}
      propertyPath: m_LocalRotation.z
      value: 0
      objectReference: {fileID: 0}
    - target: {fileID: 3671695946773133220, guid: c29038f2aa127534098348bb2af2fbfc,
        type: 3}
      propertyPath: m_LocalRotation.w
      value: 1
      objectReference: {fileID: 0}
    - target: {fileID: 3671695946773133220, guid: c29038f2aa127534098348bb2af2fbfc,
>>>>>>> feature-Interaction
        type: 3}
      propertyPath: m_RootOrder
      value: 5
      objectReference: {fileID: 0}
<<<<<<< HEAD
    - target: {fileID: 201833920206958078, guid: 9bf7656e6c7ba174686ce731335c16be,
        type: 3}
      propertyPath: m_LocalEulerAnglesHint.x
      value: 90
      objectReference: {fileID: 0}
    - target: {fileID: 201833920206958078, guid: 9bf7656e6c7ba174686ce731335c16be,
        type: 3}
      propertyPath: m_LocalEulerAnglesHint.y
      value: 0
      objectReference: {fileID: 0}
    - target: {fileID: 201833920206958078, guid: 9bf7656e6c7ba174686ce731335c16be,
        type: 3}
      propertyPath: m_LocalEulerAnglesHint.z
      value: 90.00001
      objectReference: {fileID: 0}
    - target: {fileID: 201833920206958078, guid: 9bf7656e6c7ba174686ce731335c16be,
        type: 3}
      propertyPath: m_LocalScale.z
      value: 0.33999994
      objectReference: {fileID: 0}
    m_RemovedComponents: []
  m_SourcePrefab: {fileID: 100100000, guid: 9bf7656e6c7ba174686ce731335c16be, type: 3}
--- !u!1001 &769814684
PrefabInstance:
  m_ObjectHideFlags: 0
  serializedVersion: 2
  m_Modification:
    m_TransformParent: {fileID: 1816002335}
    m_Modifications:
    - target: {fileID: 201833920206958074, guid: 9bf7656e6c7ba174686ce731335c16be,
        type: 3}
      propertyPath: m_Name
      value: Delimiter (3)
      objectReference: {fileID: 0}
    - target: {fileID: 201833920206958078, guid: 9bf7656e6c7ba174686ce731335c16be,
        type: 3}
      propertyPath: m_LocalPosition.x
      value: -400
      objectReference: {fileID: 0}
    - target: {fileID: 201833920206958078, guid: 9bf7656e6c7ba174686ce731335c16be,
        type: 3}
      propertyPath: m_LocalPosition.y
      value: 1.7
      objectReference: {fileID: 0}
    - target: {fileID: 201833920206958078, guid: 9bf7656e6c7ba174686ce731335c16be,
        type: 3}
      propertyPath: m_LocalPosition.z
      value: -50
      objectReference: {fileID: 0}
    - target: {fileID: 201833920206958078, guid: 9bf7656e6c7ba174686ce731335c16be,
        type: 3}
      propertyPath: m_LocalRotation.x
      value: 0.50000006
      objectReference: {fileID: 0}
    - target: {fileID: 201833920206958078, guid: 9bf7656e6c7ba174686ce731335c16be,
        type: 3}
      propertyPath: m_LocalRotation.y
      value: 0.5
      objectReference: {fileID: 0}
    - target: {fileID: 201833920206958078, guid: 9bf7656e6c7ba174686ce731335c16be,
        type: 3}
      propertyPath: m_LocalRotation.z
      value: -0.5
      objectReference: {fileID: 0}
    - target: {fileID: 201833920206958078, guid: 9bf7656e6c7ba174686ce731335c16be,
        type: 3}
      propertyPath: m_LocalRotation.w
      value: 0.50000006
      objectReference: {fileID: 0}
    - target: {fileID: 201833920206958078, guid: 9bf7656e6c7ba174686ce731335c16be,
        type: 3}
      propertyPath: m_RootOrder
      value: 3
      objectReference: {fileID: 0}
    - target: {fileID: 201833920206958078, guid: 9bf7656e6c7ba174686ce731335c16be,
        type: 3}
      propertyPath: m_LocalEulerAnglesHint.x
      value: 90
      objectReference: {fileID: 0}
    - target: {fileID: 201833920206958078, guid: 9bf7656e6c7ba174686ce731335c16be,
        type: 3}
      propertyPath: m_LocalEulerAnglesHint.y
      value: 180
      objectReference: {fileID: 0}
    - target: {fileID: 201833920206958078, guid: 9bf7656e6c7ba174686ce731335c16be,
        type: 3}
      propertyPath: m_LocalEulerAnglesHint.z
      value: 90.00001
      objectReference: {fileID: 0}
    - target: {fileID: 201833920206958078, guid: 9bf7656e6c7ba174686ce731335c16be,
        type: 3}
      propertyPath: m_LocalScale.z
      value: 0.33999994
      objectReference: {fileID: 0}
    m_RemovedComponents: []
  m_SourcePrefab: {fileID: 100100000, guid: 9bf7656e6c7ba174686ce731335c16be, type: 3}
--- !u!1001 &787500319
PrefabInstance:
  m_ObjectHideFlags: 0
  serializedVersion: 2
  m_Modification:
    m_TransformParent: {fileID: 1816002335}
    m_Modifications:
    - target: {fileID: 201833920206958074, guid: 9bf7656e6c7ba174686ce731335c16be,
        type: 3}
      propertyPath: m_Name
      value: Delimiter (2)
      objectReference: {fileID: 0}
    - target: {fileID: 201833920206958078, guid: 9bf7656e6c7ba174686ce731335c16be,
        type: 3}
      propertyPath: m_LocalPosition.x
      value: -350
      objectReference: {fileID: 0}
    - target: {fileID: 201833920206958078, guid: 9bf7656e6c7ba174686ce731335c16be,
        type: 3}
      propertyPath: m_LocalPosition.y
      value: 1.7
      objectReference: {fileID: 0}
    - target: {fileID: 201833920206958078, guid: 9bf7656e6c7ba174686ce731335c16be,
        type: 3}
      propertyPath: m_LocalPosition.z
      value: 0
      objectReference: {fileID: 0}
    - target: {fileID: 201833920206958078, guid: 9bf7656e6c7ba174686ce731335c16be,
        type: 3}
      propertyPath: m_LocalRotation.x
      value: -0.00000002980233
      objectReference: {fileID: 0}
    - target: {fileID: 201833920206958078, guid: 9bf7656e6c7ba174686ce731335c16be,
        type: 3}
      propertyPath: m_LocalRotation.y
      value: -0.7071068
      objectReference: {fileID: 0}
    - target: {fileID: 201833920206958078, guid: 9bf7656e6c7ba174686ce731335c16be,
        type: 3}
      propertyPath: m_LocalRotation.z
      value: 0.7071068
      objectReference: {fileID: 0}
    - target: {fileID: 201833920206958078, guid: 9bf7656e6c7ba174686ce731335c16be,
        type: 3}
      propertyPath: m_LocalRotation.w
      value: -0.00000002980233
      objectReference: {fileID: 0}
    - target: {fileID: 201833920206958078, guid: 9bf7656e6c7ba174686ce731335c16be,
        type: 3}
      propertyPath: m_RootOrder
      value: 2
      objectReference: {fileID: 0}
    - target: {fileID: 201833920206958078, guid: 9bf7656e6c7ba174686ce731335c16be,
        type: 3}
      propertyPath: m_LocalEulerAnglesHint.x
      value: 90
      objectReference: {fileID: 0}
    - target: {fileID: 201833920206958078, guid: 9bf7656e6c7ba174686ce731335c16be,
        type: 3}
      propertyPath: m_LocalEulerAnglesHint.y
      value: -90.00001
      objectReference: {fileID: 0}
    - target: {fileID: 201833920206958078, guid: 9bf7656e6c7ba174686ce731335c16be,
        type: 3}
      propertyPath: m_LocalEulerAnglesHint.z
      value: 90.00001
      objectReference: {fileID: 0}
    - target: {fileID: 201833920206958078, guid: 9bf7656e6c7ba174686ce731335c16be,
        type: 3}
      propertyPath: m_LocalScale.z
      value: 0.33999994
      objectReference: {fileID: 0}
    m_RemovedComponents: []
  m_SourcePrefab: {fileID: 100100000, guid: 9bf7656e6c7ba174686ce731335c16be, type: 3}
--- !u!4 &871175626 stripped
Transform:
  m_CorrespondingSourceObject: {fileID: 201833920206958078, guid: 9bf7656e6c7ba174686ce731335c16be,
    type: 3}
  m_PrefabInstance: {fileID: 715804519}
  m_PrefabAsset: {fileID: 0}
=======
    - target: {fileID: 3671695946773133220, guid: c29038f2aa127534098348bb2af2fbfc,
        type: 3}
      propertyPath: m_LocalEulerAnglesHint.x
      value: 0
      objectReference: {fileID: 0}
    - target: {fileID: 3671695946773133220, guid: c29038f2aa127534098348bb2af2fbfc,
        type: 3}
      propertyPath: m_LocalEulerAnglesHint.y
      value: 0
      objectReference: {fileID: 0}
    - target: {fileID: 3671695946773133220, guid: c29038f2aa127534098348bb2af2fbfc,
        type: 3}
      propertyPath: m_LocalEulerAnglesHint.z
      value: 0
      objectReference: {fileID: 0}
    m_RemovedComponents: []
  m_SourcePrefab: {fileID: 100100000, guid: c29038f2aa127534098348bb2af2fbfc, type: 3}
>>>>>>> feature-Interaction
--- !u!1 &927353456
GameObject:
  m_ObjectHideFlags: 0
  m_CorrespondingSourceObject: {fileID: 0}
  m_PrefabInstance: {fileID: 0}
  m_PrefabAsset: {fileID: 0}
  serializedVersion: 6
  m_Component:
  - component: {fileID: 927353458}
  - component: {fileID: 927353457}
  m_Layer: 0
  m_Name: Area Light
  m_TagString: Untagged
  m_Icon: {fileID: 0}
  m_NavMeshLayer: 0
  m_StaticEditorFlags: 0
  m_IsActive: 1
--- !u!108 &927353457
Light:
  m_ObjectHideFlags: 0
  m_CorrespondingSourceObject: {fileID: 0}
  m_PrefabInstance: {fileID: 0}
  m_PrefabAsset: {fileID: 0}
  m_GameObject: {fileID: 927353456}
  m_Enabled: 1
  serializedVersion: 9
  m_Type: 3
  m_Color: {r: 1, g: 1, b: 1, a: 1}
  m_Intensity: 1
  m_Range: 45.96
  m_SpotAngle: 30
  m_InnerSpotAngle: 21.80208
  m_CookieSize: 10
  m_Shadows:
    m_Type: 2
    m_Resolution: -1
    m_CustomResolution: -1
    m_Strength: 1
    m_Bias: 0.05
    m_NormalBias: 0.4
    m_NearPlane: 0.2
    m_CullingMatrixOverride:
      e00: 1
      e01: 0
      e02: 0
      e03: 0
      e10: 0
      e11: 1
      e12: 0
      e13: 0
      e20: 0
      e21: 0
      e22: 1
      e23: 0
      e30: 0
      e31: 0
      e32: 0
      e33: 1
    m_UseCullingMatrixOverride: 0
  m_Cookie: {fileID: 0}
  m_DrawHalo: 0
  m_Flare: {fileID: 0}
  m_RenderMode: 0
  m_CullingMask:
    serializedVersion: 2
    m_Bits: 4294967295
  m_RenderingLayerMask: 1
  m_Lightmapping: 2
  m_LightShadowCasterMode: 0
  m_AreaSize: {x: 1, y: 1}
  m_BounceIntensity: 1
  m_ColorTemperature: 6570
  m_UseColorTemperature: 0
  m_BoundingSphereOverride: {x: 0, y: 0, z: 0, w: 0}
  m_UseBoundingSphereOverride: 0
  m_ShadowRadius: 0
  m_ShadowAngle: 0
--- !u!4 &927353458
Transform:
  m_ObjectHideFlags: 0
  m_CorrespondingSourceObject: {fileID: 0}
  m_PrefabInstance: {fileID: 0}
  m_PrefabAsset: {fileID: 0}
  m_GameObject: {fileID: 927353456}
  m_LocalRotation: {x: 0.7071068, y: 0, z: 0, w: 0.7071068}
  m_LocalPosition: {x: 46.4, y: 21.2, z: 13.6}
  m_LocalScale: {x: 1, y: 1, z: 1}
  m_Children: []
  m_Father: {fileID: 0}
  m_RootOrder: 4
  m_LocalEulerAnglesHint: {x: 90, y: 0, z: 0}
--- !u!1001 &999732777
PrefabInstance:
  m_ObjectHideFlags: 0
  serializedVersion: 2
  m_Modification:
    m_TransformParent: {fileID: 0}
    m_Modifications:
    - target: {fileID: 6007786124455219169, guid: 8936c672fa6e3b748b27849f2d89af3d,
        type: 3}
      propertyPath: m_Name
      value: KC Metropolis
      objectReference: {fileID: 0}
    - target: {fileID: 6007786124455219170, guid: 8936c672fa6e3b748b27849f2d89af3d,
        type: 3}
      propertyPath: m_LocalPosition.x
      value: 0
      objectReference: {fileID: 0}
    - target: {fileID: 6007786124455219170, guid: 8936c672fa6e3b748b27849f2d89af3d,
        type: 3}
      propertyPath: m_LocalPosition.y
      value: 0
      objectReference: {fileID: 0}
    - target: {fileID: 6007786124455219170, guid: 8936c672fa6e3b748b27849f2d89af3d,
        type: 3}
      propertyPath: m_LocalPosition.z
      value: 0
      objectReference: {fileID: 0}
    - target: {fileID: 6007786124455219170, guid: 8936c672fa6e3b748b27849f2d89af3d,
        type: 3}
      propertyPath: m_LocalRotation.x
      value: 0
      objectReference: {fileID: 0}
    - target: {fileID: 6007786124455219170, guid: 8936c672fa6e3b748b27849f2d89af3d,
        type: 3}
      propertyPath: m_LocalRotation.y
      value: 0
      objectReference: {fileID: 0}
    - target: {fileID: 6007786124455219170, guid: 8936c672fa6e3b748b27849f2d89af3d,
        type: 3}
      propertyPath: m_LocalRotation.z
      value: 0
      objectReference: {fileID: 0}
    - target: {fileID: 6007786124455219170, guid: 8936c672fa6e3b748b27849f2d89af3d,
        type: 3}
      propertyPath: m_LocalRotation.w
      value: 1
      objectReference: {fileID: 0}
    - target: {fileID: 6007786124455219170, guid: 8936c672fa6e3b748b27849f2d89af3d,
        type: 3}
      propertyPath: m_RootOrder
      value: 3
      objectReference: {fileID: 0}
    - target: {fileID: 6007786124455219170, guid: 8936c672fa6e3b748b27849f2d89af3d,
        type: 3}
      propertyPath: m_LocalEulerAnglesHint.x
      value: 0
      objectReference: {fileID: 0}
    - target: {fileID: 6007786124455219170, guid: 8936c672fa6e3b748b27849f2d89af3d,
        type: 3}
      propertyPath: m_LocalEulerAnglesHint.y
      value: 0
      objectReference: {fileID: 0}
    - target: {fileID: 6007786124455219170, guid: 8936c672fa6e3b748b27849f2d89af3d,
        type: 3}
      propertyPath: m_LocalEulerAnglesHint.z
      value: 0
      objectReference: {fileID: 0}
    - target: {fileID: 6007786125047374609, guid: 8936c672fa6e3b748b27849f2d89af3d,
        type: 3}
      propertyPath: m_LocalPosition.x
      value: -150
      objectReference: {fileID: 0}
    - target: {fileID: 6007786125047374609, guid: 8936c672fa6e3b748b27849f2d89af3d,
        type: 3}
      propertyPath: m_LocalPosition.z
      value: 150
      objectReference: {fileID: 0}
    - target: {fileID: 6007786124723020961, guid: 8936c672fa6e3b748b27849f2d89af3d,
        type: 3}
      propertyPath: m_LocalPosition.z
      value: 50
      objectReference: {fileID: 0}
    - target: {fileID: 6007786124064073152, guid: 8936c672fa6e3b748b27849f2d89af3d,
        type: 3}
      propertyPath: m_LocalPosition.x
      value: -250
      objectReference: {fileID: 0}
    - target: {fileID: 6007786124064073152, guid: 8936c672fa6e3b748b27849f2d89af3d,
        type: 3}
      propertyPath: m_LocalPosition.z
      value: -50
      objectReference: {fileID: 0}
    - target: {fileID: 6007786124064073152, guid: 8936c672fa6e3b748b27849f2d89af3d,
        type: 3}
      propertyPath: m_LocalRotation.y
      value: 0.7071068
      objectReference: {fileID: 0}
    - target: {fileID: 6007786124064073152, guid: 8936c672fa6e3b748b27849f2d89af3d,
        type: 3}
      propertyPath: m_LocalRotation.w
      value: -0.7071068
      objectReference: {fileID: 0}
    - target: {fileID: 6007786124064073152, guid: 8936c672fa6e3b748b27849f2d89af3d,
        type: 3}
      propertyPath: m_LocalEulerAnglesHint.y
      value: 270
      objectReference: {fileID: 0}
    - target: {fileID: 6007786124064073152, guid: 8936c672fa6e3b748b27849f2d89af3d,
        type: 3}
      propertyPath: m_LocalRotation.z
      value: -0
      objectReference: {fileID: 0}
    - target: {fileID: 6007786124795635933, guid: 8936c672fa6e3b748b27849f2d89af3d,
        type: 3}
      propertyPath: m_LocalPosition.x
      value: -50
      objectReference: {fileID: 0}
    - target: {fileID: 6007786124795635933, guid: 8936c672fa6e3b748b27849f2d89af3d,
        type: 3}
      propertyPath: m_LocalPosition.z
      value: 150
      objectReference: {fileID: 0}
    - target: {fileID: 6007786125017551248, guid: 8936c672fa6e3b748b27849f2d89af3d,
        type: 3}
      propertyPath: m_LocalPosition.x
      value: -250
      objectReference: {fileID: 0}
    - target: {fileID: 6007786123931556981, guid: 8936c672fa6e3b748b27849f2d89af3d,
        type: 3}
      propertyPath: m_LocalPosition.x
      value: -250
      objectReference: {fileID: 0}
    - target: {fileID: 6007786123931556981, guid: 8936c672fa6e3b748b27849f2d89af3d,
        type: 3}
      propertyPath: m_LocalPosition.z
      value: -150
      objectReference: {fileID: 0}
    - target: {fileID: 6007786124627298919, guid: 8936c672fa6e3b748b27849f2d89af3d,
        type: 3}
      propertyPath: m_LocalPosition.x
      value: -350
      objectReference: {fileID: 0}
    - target: {fileID: 6007786124491552395, guid: 8936c672fa6e3b748b27849f2d89af3d,
        type: 3}
      propertyPath: m_LocalPosition.x
      value: -350
      objectReference: {fileID: 0}
    - target: {fileID: 6007786124491552395, guid: 8936c672fa6e3b748b27849f2d89af3d,
        type: 3}
      propertyPath: m_LocalPosition.z
      value: -250
      objectReference: {fileID: 0}
    - target: {fileID: 6007786124441879821, guid: 8936c672fa6e3b748b27849f2d89af3d,
        type: 3}
      propertyPath: m_LocalPosition.x
      value: -350
      objectReference: {fileID: 0}
    - target: {fileID: 6007786124039275521, guid: 8936c672fa6e3b748b27849f2d89af3d,
        type: 3}
      propertyPath: m_LocalPosition.x
      value: -250
      objectReference: {fileID: 0}
    - target: {fileID: 6007786124039275521, guid: 8936c672fa6e3b748b27849f2d89af3d,
        type: 3}
      propertyPath: m_LocalPosition.z
      value: -250
      objectReference: {fileID: 0}
    - target: {fileID: 6007786124064073215, guid: 8936c672fa6e3b748b27849f2d89af3d,
        type: 3}
      propertyPath: m_Name
      value: Block (3) - Basketball
      objectReference: {fileID: 0}
    - target: {fileID: 6007786124795635932, guid: 8936c672fa6e3b748b27849f2d89af3d,
        type: 3}
      propertyPath: m_Name
      value: Block (4) - Baustelle & Globe Building
      objectReference: {fileID: 0}
    - target: {fileID: 6007786125036241849, guid: 8936c672fa6e3b748b27849f2d89af3d,
        type: 3}
      propertyPath: m_Name
      value: "Block (7) - Werbetafel gro\xDF"
      objectReference: {fileID: 0}
    m_RemovedComponents: []
  m_SourcePrefab: {fileID: 100100000, guid: 8936c672fa6e3b748b27849f2d89af3d, type: 3}
<<<<<<< HEAD
--- !u!4 &1032877573 stripped
Transform:
  m_CorrespondingSourceObject: {fileID: 201833920206958078, guid: 9bf7656e6c7ba174686ce731335c16be,
    type: 3}
  m_PrefabInstance: {fileID: 201833921145647162}
  m_PrefabAsset: {fileID: 0}
--- !u!4 &1046426310 stripped
Transform:
  m_CorrespondingSourceObject: {fileID: 201833920206958078, guid: 9bf7656e6c7ba174686ce731335c16be,
    type: 3}
  m_PrefabInstance: {fileID: 1104949834}
  m_PrefabAsset: {fileID: 0}
--- !u!1001 &1104949834
=======
--- !u!1001 &1209488487
>>>>>>> feature-Interaction
PrefabInstance:
  m_ObjectHideFlags: 0
  serializedVersion: 2
  m_Modification:
<<<<<<< HEAD
    m_TransformParent: {fileID: 1816002335}
    m_Modifications:
    - target: {fileID: 201833920206958074, guid: 9bf7656e6c7ba174686ce731335c16be,
        type: 3}
      propertyPath: m_Name
      value: Delimiter (4)
      objectReference: {fileID: 0}
    - target: {fileID: 201833920206958078, guid: 9bf7656e6c7ba174686ce731335c16be,
        type: 3}
      propertyPath: m_LocalPosition.x
      value: -400
      objectReference: {fileID: 0}
    - target: {fileID: 201833920206958078, guid: 9bf7656e6c7ba174686ce731335c16be,
        type: 3}
      propertyPath: m_LocalPosition.y
      value: 1.7
      objectReference: {fileID: 0}
    - target: {fileID: 201833920206958078, guid: 9bf7656e6c7ba174686ce731335c16be,
        type: 3}
      propertyPath: m_LocalPosition.z
      value: -150
      objectReference: {fileID: 0}
    - target: {fileID: 201833920206958078, guid: 9bf7656e6c7ba174686ce731335c16be,
        type: 3}
      propertyPath: m_LocalRotation.x
      value: 0.50000006
      objectReference: {fileID: 0}
    - target: {fileID: 201833920206958078, guid: 9bf7656e6c7ba174686ce731335c16be,
        type: 3}
      propertyPath: m_LocalRotation.y
      value: 0.5
      objectReference: {fileID: 0}
    - target: {fileID: 201833920206958078, guid: 9bf7656e6c7ba174686ce731335c16be,
        type: 3}
      propertyPath: m_LocalRotation.z
      value: -0.5
      objectReference: {fileID: 0}
    - target: {fileID: 201833920206958078, guid: 9bf7656e6c7ba174686ce731335c16be,
        type: 3}
      propertyPath: m_LocalRotation.w
      value: 0.50000006
      objectReference: {fileID: 0}
    - target: {fileID: 201833920206958078, guid: 9bf7656e6c7ba174686ce731335c16be,
        type: 3}
      propertyPath: m_RootOrder
      value: 4
      objectReference: {fileID: 0}
    - target: {fileID: 201833920206958078, guid: 9bf7656e6c7ba174686ce731335c16be,
        type: 3}
      propertyPath: m_LocalEulerAnglesHint.x
      value: 90
      objectReference: {fileID: 0}
    - target: {fileID: 201833920206958078, guid: 9bf7656e6c7ba174686ce731335c16be,
        type: 3}
      propertyPath: m_LocalEulerAnglesHint.y
      value: 180
      objectReference: {fileID: 0}
    - target: {fileID: 201833920206958078, guid: 9bf7656e6c7ba174686ce731335c16be,
        type: 3}
      propertyPath: m_LocalEulerAnglesHint.z
      value: 90.00001
      objectReference: {fileID: 0}
    - target: {fileID: 201833920206958078, guid: 9bf7656e6c7ba174686ce731335c16be,
        type: 3}
      propertyPath: m_LocalScale.z
      value: 0.33999994
      objectReference: {fileID: 0}
    m_RemovedComponents: []
  m_SourcePrefab: {fileID: 100100000, guid: 9bf7656e6c7ba174686ce731335c16be, type: 3}
=======
    m_TransformParent: {fileID: 0}
    m_Modifications:
    - target: {fileID: 2569690193527162574, guid: eb25b41ee817a4142ab226e100cacaec,
        type: 3}
      propertyPath: m_Name
      value: Car Variant
      objectReference: {fileID: 0}
    - target: {fileID: 2568110821948807188, guid: eb25b41ee817a4142ab226e100cacaec,
        type: 3}
      propertyPath: m_LocalPosition.x
      value: -24.99
      objectReference: {fileID: 0}
    - target: {fileID: 2568110821948807188, guid: eb25b41ee817a4142ab226e100cacaec,
        type: 3}
      propertyPath: m_LocalPosition.y
      value: 0.0010147095
      objectReference: {fileID: 0}
    - target: {fileID: 2568110821948807188, guid: eb25b41ee817a4142ab226e100cacaec,
        type: 3}
      propertyPath: m_LocalPosition.z
      value: 5.22
      objectReference: {fileID: 0}
    - target: {fileID: 2568110821948807188, guid: eb25b41ee817a4142ab226e100cacaec,
        type: 3}
      propertyPath: m_LocalRotation.x
      value: -0
      objectReference: {fileID: 0}
    - target: {fileID: 2568110821948807188, guid: eb25b41ee817a4142ab226e100cacaec,
        type: 3}
      propertyPath: m_LocalRotation.y
      value: -0.7082139
      objectReference: {fileID: 0}
    - target: {fileID: 2568110821948807188, guid: eb25b41ee817a4142ab226e100cacaec,
        type: 3}
      propertyPath: m_LocalRotation.z
      value: -0
      objectReference: {fileID: 0}
    - target: {fileID: 2568110821948807188, guid: eb25b41ee817a4142ab226e100cacaec,
        type: 3}
      propertyPath: m_LocalRotation.w
      value: 0.705998
      objectReference: {fileID: 0}
    - target: {fileID: 2568110821948807188, guid: eb25b41ee817a4142ab226e100cacaec,
        type: 3}
      propertyPath: m_RootOrder
      value: 1
      objectReference: {fileID: 0}
    - target: {fileID: 2568110821948807188, guid: eb25b41ee817a4142ab226e100cacaec,
        type: 3}
      propertyPath: m_LocalEulerAnglesHint.x
      value: 0
      objectReference: {fileID: 0}
    - target: {fileID: 2568110821948807188, guid: eb25b41ee817a4142ab226e100cacaec,
        type: 3}
      propertyPath: m_LocalEulerAnglesHint.y
      value: -90.18001
      objectReference: {fileID: 0}
    - target: {fileID: 2568110821948807188, guid: eb25b41ee817a4142ab226e100cacaec,
        type: 3}
      propertyPath: m_LocalEulerAnglesHint.z
      value: 0
      objectReference: {fileID: 0}
    - target: {fileID: 2570295436834452264, guid: eb25b41ee817a4142ab226e100cacaec,
        type: 3}
      propertyPath: m_IsActive
      value: 1
      objectReference: {fileID: 0}
    m_RemovedComponents: []
  m_SourcePrefab: {fileID: 100100000, guid: eb25b41ee817a4142ab226e100cacaec, type: 3}
--- !u!1001 &1504559035
PrefabInstance:
  m_ObjectHideFlags: 0
  serializedVersion: 2
  m_Modification:
    m_TransformParent: {fileID: 0}
    m_Modifications:
    - target: {fileID: 3504911958561275889, guid: 763bad2a02007f14ba75d0c74e69397a,
        type: 3}
      propertyPath: m_Name
      value: _VehicleManager Variant
      objectReference: {fileID: 0}
    - target: {fileID: 3506375463714788795, guid: 763bad2a02007f14ba75d0c74e69397a,
        type: 3}
      propertyPath: m_LocalPosition.x
      value: 227.48672
      objectReference: {fileID: 0}
    - target: {fileID: 3506375463714788795, guid: 763bad2a02007f14ba75d0c74e69397a,
        type: 3}
      propertyPath: m_LocalPosition.y
      value: -3.2217298
      objectReference: {fileID: 0}
    - target: {fileID: 3506375463714788795, guid: 763bad2a02007f14ba75d0c74e69397a,
        type: 3}
      propertyPath: m_LocalPosition.z
      value: -56.06308
      objectReference: {fileID: 0}
    - target: {fileID: 3506375463714788795, guid: 763bad2a02007f14ba75d0c74e69397a,
        type: 3}
      propertyPath: m_LocalRotation.x
      value: -0
      objectReference: {fileID: 0}
    - target: {fileID: 3506375463714788795, guid: 763bad2a02007f14ba75d0c74e69397a,
        type: 3}
      propertyPath: m_LocalRotation.y
      value: -0.7071068
      objectReference: {fileID: 0}
    - target: {fileID: 3506375463714788795, guid: 763bad2a02007f14ba75d0c74e69397a,
        type: 3}
      propertyPath: m_LocalRotation.z
      value: -0
      objectReference: {fileID: 0}
    - target: {fileID: 3506375463714788795, guid: 763bad2a02007f14ba75d0c74e69397a,
        type: 3}
      propertyPath: m_LocalRotation.w
      value: 0.7071068
      objectReference: {fileID: 0}
    - target: {fileID: 3506375463714788795, guid: 763bad2a02007f14ba75d0c74e69397a,
        type: 3}
      propertyPath: m_RootOrder
      value: 6
      objectReference: {fileID: 0}
    - target: {fileID: 3506375463714788795, guid: 763bad2a02007f14ba75d0c74e69397a,
        type: 3}
      propertyPath: m_LocalEulerAnglesHint.x
      value: 0
      objectReference: {fileID: 0}
    - target: {fileID: 3506375463714788795, guid: 763bad2a02007f14ba75d0c74e69397a,
        type: 3}
      propertyPath: m_LocalEulerAnglesHint.y
      value: 0
      objectReference: {fileID: 0}
    - target: {fileID: 3506375463714788795, guid: 763bad2a02007f14ba75d0c74e69397a,
        type: 3}
      propertyPath: m_LocalEulerAnglesHint.z
      value: 0
      objectReference: {fileID: 0}
    m_RemovedComponents: []
  m_SourcePrefab: {fileID: 100100000, guid: 763bad2a02007f14ba75d0c74e69397a, type: 3}
>>>>>>> feature-Interaction
--- !u!1 &1570386262
GameObject:
  m_ObjectHideFlags: 0
  m_CorrespondingSourceObject: {fileID: 0}
  m_PrefabInstance: {fileID: 0}
  m_PrefabAsset: {fileID: 0}
  serializedVersion: 6
  m_Component:
  - component: {fileID: 1570386264}
  - component: {fileID: 1570386263}
  m_Layer: 0
  m_Name: Directional Light
  m_TagString: Untagged
  m_Icon: {fileID: 0}
  m_NavMeshLayer: 0
  m_StaticEditorFlags: 0
  m_IsActive: 1
--- !u!108 &1570386263
Light:
  m_ObjectHideFlags: 0
  m_CorrespondingSourceObject: {fileID: 0}
  m_PrefabInstance: {fileID: 0}
  m_PrefabAsset: {fileID: 0}
  m_GameObject: {fileID: 1570386262}
  m_Enabled: 1
  serializedVersion: 9
  m_Type: 1
  m_Color: {r: 1, g: 0.9125885, b: 0.7028302, a: 1}
  m_Intensity: 1.5
  m_Range: 10
  m_SpotAngle: 30
  m_InnerSpotAngle: 21.80208
  m_CookieSize: 10
  m_Shadows:
    m_Type: 2
    m_Resolution: -1
    m_CustomResolution: -1
    m_Strength: 0.36
    m_Bias: 0.05
    m_NormalBias: 0.4
    m_NearPlane: 0.2
    m_CullingMatrixOverride:
      e00: 1
      e01: 0
      e02: 0
      e03: 0
      e10: 0
      e11: 1
      e12: 0
      e13: 0
      e20: 0
      e21: 0
      e22: 1
      e23: 0
      e30: 0
      e31: 0
      e32: 0
      e33: 1
    m_UseCullingMatrixOverride: 0
  m_Cookie: {fileID: 0}
  m_DrawHalo: 0
  m_Flare: {fileID: 0}
  m_RenderMode: 0
  m_CullingMask:
    serializedVersion: 2
    m_Bits: 4294967295
  m_RenderingLayerMask: 1
  m_Lightmapping: 1
  m_LightShadowCasterMode: 0
  m_AreaSize: {x: 1, y: 1}
  m_BounceIntensity: 5
  m_ColorTemperature: 6570
  m_UseColorTemperature: 0
  m_BoundingSphereOverride: {x: 0, y: 0, z: 0, w: 0}
  m_UseBoundingSphereOverride: 0
  m_ShadowRadius: 0
  m_ShadowAngle: 0
--- !u!4 &1570386264
Transform:
  m_ObjectHideFlags: 0
  m_CorrespondingSourceObject: {fileID: 0}
  m_PrefabInstance: {fileID: 0}
  m_PrefabAsset: {fileID: 0}
  m_GameObject: {fileID: 1570386262}
  m_LocalRotation: {x: 0.42261827, y: 0, z: 0, w: 0.9063079}
  m_LocalPosition: {x: 0, y: 500, z: -167.5}
  m_LocalScale: {x: 1, y: 1, z: 1}
  m_Children: []
  m_Father: {fileID: 0}
  m_RootOrder: 2
  m_LocalEulerAnglesHint: {x: 50, y: 0, z: 0}
--- !u!1 &1590194161
GameObject:
  m_ObjectHideFlags: 0
  m_CorrespondingSourceObject: {fileID: 0}
  m_PrefabInstance: {fileID: 0}
  m_PrefabAsset: {fileID: 0}
  serializedVersion: 6
  m_Component:
  - component: {fileID: 1590194164}
  - component: {fileID: 1590194163}
  - component: {fileID: 1590194162}
  - component: {fileID: 1590194165}
  - component: {fileID: 1590194166}
  m_Layer: 0
  m_Name: Main Camera
  m_TagString: MainCamera
  m_Icon: {fileID: 0}
  m_NavMeshLayer: 0
  m_StaticEditorFlags: 0
  m_IsActive: 0
--- !u!81 &1590194162
AudioListener:
  m_ObjectHideFlags: 0
  m_CorrespondingSourceObject: {fileID: 0}
  m_PrefabInstance: {fileID: 0}
  m_PrefabAsset: {fileID: 0}
  m_GameObject: {fileID: 1590194161}
  m_Enabled: 1
--- !u!20 &1590194163
Camera:
  m_ObjectHideFlags: 0
  m_CorrespondingSourceObject: {fileID: 0}
  m_PrefabInstance: {fileID: 0}
  m_PrefabAsset: {fileID: 0}
  m_GameObject: {fileID: 1590194161}
  m_Enabled: 1
  serializedVersion: 2
  m_ClearFlags: 1
  m_BackGroundColor: {r: 0.19215687, g: 0.3019608, b: 0.4745098, a: 0}
  m_projectionMatrixMode: 1
  m_GateFitMode: 2
  m_FOVAxisMode: 0
  m_SensorSize: {x: 36, y: 24}
  m_LensShift: {x: 0, y: 0}
  m_FocalLength: 50
  m_NormalizedViewPortRect:
    serializedVersion: 2
    x: 0
    y: 0
    width: 1
    height: 1
  near clip plane: 0.3
  far clip plane: 1000
  field of view: 60
  orthographic: 0
  orthographic size: 5
  m_Depth: -1
  m_CullingMask:
    serializedVersion: 2
    m_Bits: 4294967295
  m_RenderingPath: -1
  m_TargetTexture: {fileID: 0}
  m_TargetDisplay: 0
  m_TargetEye: 3
  m_HDR: 1
  m_AllowMSAA: 1
  m_AllowDynamicResolution: 0
  m_ForceIntoRT: 0
  m_OcclusionCulling: 1
  m_StereoConvergence: 10
  m_StereoSeparation: 0.022
--- !u!4 &1590194164
Transform:
  m_ObjectHideFlags: 0
  m_CorrespondingSourceObject: {fileID: 0}
  m_PrefabInstance: {fileID: 0}
  m_PrefabAsset: {fileID: 0}
  m_GameObject: {fileID: 1590194161}
  m_LocalRotation: {x: 0, y: -0.29237175, z: 0, w: 0.9563048}
  m_LocalPosition: {x: -289.2, y: 1.56, z: 81}
  m_LocalScale: {x: 1, y: 1, z: 1}
  m_Children: []
  m_Father: {fileID: 0}
  m_RootOrder: 0
  m_LocalEulerAnglesHint: {x: 0, y: -34, z: 0}
--- !u!114 &1590194165
MonoBehaviour:
  m_ObjectHideFlags: 0
  m_CorrespondingSourceObject: {fileID: 0}
  m_PrefabInstance: {fileID: 0}
  m_PrefabAsset: {fileID: 0}
  m_GameObject: {fileID: 1590194161}
  m_Enabled: 1
  m_EditorHideFlags: 0
  m_Script: {fileID: 11500000, guid: 2c54f1769b82c304587ee4c597c90c1d, type: 3}
  m_Name: 
  m_EditorClassIdentifier: 
  center: 1
  boostKey: 304
  boost: 2
  speed: 5
  sensitivity: 60
--- !u!45 &1590194166
Skybox:
  m_ObjectHideFlags: 0
  m_CorrespondingSourceObject: {fileID: 0}
  m_PrefabInstance: {fileID: 0}
  m_PrefabAsset: {fileID: 0}
  m_GameObject: {fileID: 1590194161}
  m_Enabled: 1
  m_CustomSkybox: {fileID: 2100000, guid: 3cb99744b6248e54b8c0b0fb36aabbc7, type: 2}
--- !u!4 &1772472928 stripped
Transform:
  m_CorrespondingSourceObject: {fileID: 6007786124455219170, guid: 8936c672fa6e3b748b27849f2d89af3d,
    type: 3}
  m_PrefabInstance: {fileID: 999732777}
  m_PrefabAsset: {fileID: 0}
--- !u!1 &1816002334
GameObject:
  m_ObjectHideFlags: 0
  m_CorrespondingSourceObject: {fileID: 0}
  m_PrefabInstance: {fileID: 0}
  m_PrefabAsset: {fileID: 0}
  serializedVersion: 6
  m_Component:
  - component: {fileID: 1816002335}
  m_Layer: 0
  m_Name: Delimiter
  m_TagString: Untagged
  m_Icon: {fileID: 0}
  m_NavMeshLayer: 0
  m_StaticEditorFlags: 0
  m_IsActive: 1
--- !u!4 &1816002335
Transform:
  m_ObjectHideFlags: 0
  m_CorrespondingSourceObject: {fileID: 0}
  m_PrefabInstance: {fileID: 0}
  m_PrefabAsset: {fileID: 0}
  m_GameObject: {fileID: 1816002334}
  m_LocalRotation: {x: 0, y: 0, z: 0, w: 1}
  m_LocalPosition: {x: 0, y: 0, z: 0}
  m_LocalScale: {x: 1, y: 1, z: 1}
  m_Children:
  - {fileID: 1032877573}
  - {fileID: 216104885}
  - {fileID: 400883470}
  - {fileID: 699409212}
  - {fileID: 1046426310}
  - {fileID: 871175626}
  m_Father: {fileID: 1772472928}
  m_RootOrder: 16
  m_LocalEulerAnglesHint: {x: 0, y: 0, z: 0}
--- !u!1001 &201833921145647162
PrefabInstance:
  m_ObjectHideFlags: 0
  serializedVersion: 2
  m_Modification:
    m_TransformParent: {fileID: 1816002335}
    m_Modifications:
    - target: {fileID: 201833920206958074, guid: 9bf7656e6c7ba174686ce731335c16be,
        type: 3}
      propertyPath: m_Name
      value: Delimiter
      objectReference: {fileID: 0}
    - target: {fileID: 201833920206958078, guid: 9bf7656e6c7ba174686ce731335c16be,
        type: 3}
      propertyPath: m_LocalPosition.x
      value: -250
      objectReference: {fileID: 0}
    - target: {fileID: 201833920206958078, guid: 9bf7656e6c7ba174686ce731335c16be,
        type: 3}
      propertyPath: m_LocalPosition.y
      value: 1.7
      objectReference: {fileID: 0}
    - target: {fileID: 201833920206958078, guid: 9bf7656e6c7ba174686ce731335c16be,
        type: 3}
      propertyPath: m_LocalPosition.z
      value: 100
      objectReference: {fileID: 0}
    - target: {fileID: 201833920206958078, guid: 9bf7656e6c7ba174686ce731335c16be,
        type: 3}
      propertyPath: m_LocalRotation.x
      value: -0.00000002980233
      objectReference: {fileID: 0}
    - target: {fileID: 201833920206958078, guid: 9bf7656e6c7ba174686ce731335c16be,
        type: 3}
      propertyPath: m_LocalRotation.y
      value: -0.7071068
      objectReference: {fileID: 0}
    - target: {fileID: 201833920206958078, guid: 9bf7656e6c7ba174686ce731335c16be,
        type: 3}
      propertyPath: m_LocalRotation.z
      value: 0.7071068
      objectReference: {fileID: 0}
    - target: {fileID: 201833920206958078, guid: 9bf7656e6c7ba174686ce731335c16be,
        type: 3}
      propertyPath: m_LocalRotation.w
      value: -0.00000002980233
      objectReference: {fileID: 0}
    - target: {fileID: 201833920206958078, guid: 9bf7656e6c7ba174686ce731335c16be,
        type: 3}
      propertyPath: m_RootOrder
      value: 0
      objectReference: {fileID: 0}
    - target: {fileID: 201833920206958078, guid: 9bf7656e6c7ba174686ce731335c16be,
        type: 3}
      propertyPath: m_LocalEulerAnglesHint.x
      value: 90
      objectReference: {fileID: 0}
    - target: {fileID: 201833920206958078, guid: 9bf7656e6c7ba174686ce731335c16be,
        type: 3}
      propertyPath: m_LocalEulerAnglesHint.y
      value: -90.00001
      objectReference: {fileID: 0}
    - target: {fileID: 201833920206958078, guid: 9bf7656e6c7ba174686ce731335c16be,
        type: 3}
      propertyPath: m_LocalEulerAnglesHint.z
      value: 90.00001
      objectReference: {fileID: 0}
    - target: {fileID: 201833920206958078, guid: 9bf7656e6c7ba174686ce731335c16be,
        type: 3}
      propertyPath: m_LocalScale.z
      value: 0.33999994
      objectReference: {fileID: 0}
    m_RemovedComponents: []
  m_SourcePrefab: {fileID: 100100000, guid: 9bf7656e6c7ba174686ce731335c16be, type: 3}
